Success! Load Cert 200
2016-07-26 20:05:58 INFO  SitefEventSocket:140 - Success! Load Cert 200
2016-07-26 20:05:58 INFO  AppServer:542 - getMac >>
Current IP address : 10.156.174.179
2016-07-26 20:05:58 INFO  AppServer:546 - Current IP address : 10.156.174.179
Current MAC address : 2016-07-26 20:05:58 INFO  AppServer:553 - Current MAC address : 
Success! Load Cert 200
2016-07-26 20:05:58 INFO  SitefEventSocket:140 - Success! Load Cert 200
2016-07-26 20:05:58 INFO  AppServer:529 - return: storageLocal
sun.arch.data.model Win64
2016-07-26 20:05:58 INFO  AppServer:72 - sun.arch.data.model Win64
Writing dll to: c:\totem\RechargeRPC.dll
2016-07-26 20:05:58 INFO  AppServer:78 - Writing dll to: c:\totem\RechargeRPC.dll
Jetty WEB DIR >>>>jar:file:/C:/totem/appServer.jar!/app
2016-07-26 20:05:58 INFO  AppServer:287 - Jetty WEB DIR >>>>jar:file:/C:/totem/appServer.jar!/app
